rectr
…
In an easy-to-use <svg style="height:0.8em;top:.04em;position:relative;" viewBox="0 0 581 512"><path d="M581 226.6C581 119.1 450.9 32 290.5 32S0 119.1 0 226.6C0 322.4 103.3 402 239.4 418.1V480h99.1v-61.5c24.3-2.7 47.6-7.4 69.4-13.9L448 480h112l-67.4-113.7c54.5-35.4 88.4-84.9 88.4-139.7zm-466.8 14.5c0-73.5 98.9-133 220.8-133s211.9 40.7 211.9 133c0 50.1-26.5 85-70.3 106.4-2.4-1.6-4.7-2.9-6.4-3.7-10.2-5.2-27.8-10.5-27.8-10.5s86.6-6.4 86.6-92.7-90.6-87.9-90.6-87.9h-199V361c-74.1-21.5-125.2-67.1-125.2-119.9zm225.1 38.3v-55.6c57.8 0 87.8-6.8 87.8 27.3 0 36.5-38.2 28.3-87.8 28.3zm-.9 72.5H365c10.8 0 18.9 11.7 24 19.2-16.1 1.9-33 2.8-50.6 2.9v-22.1z"/></svg> package

---
background-image: url(https://media.giphy.com/media/vFKqnCdLPNOKc/source.gif)
background-position: center
background-size: cover
class: hide-logo, center,  hide-footer, bottom

.imagelab[Es gibt keinen Kater: A Practical Scenario]

---
class: inverse

    ## # A tibble: 3,391 x 10
    ##    path  id    pubdate headline lede  body  lang  content    nt tokenized_conte…
    ##    <chr> <chr> <chr>   <chr>    <chr> <chr> <chr> <chr>   <int> <list>          
    ##  1 ./pa… arti… 2 Nove… "Maladi… "Ave… "Dan… FR    "Avec …  1026 <chr [1,138]>   
    ##  2 ./pa… arti… 2 Nove… "« Cela… "LE … "Pat… FR    "LE FI…   734 <chr [820]>     
    ##  3 ./pa… arti… 2 Nove… "L'Iran… "L'a… "de … FR    "L'anc…   984 <chr [1,081]>   
    ##  4 ./pa… arti… 2 Nove… "Matthi… "Le … "Mat… FR    "Le pr…  1077 <chr [1,213]>   
    ##  5 ./pa… arti… 2 Nove… "Les 31… "Lan… "EUR… FR    "Lancé…  1012 <chr [1,115]>   
    ##  6 ./pa… arti… 2 Nove… "Genera… "Apr… "À l… FR    "Après…   800 <chr [874]>     
    ##  7 ./pa… arti… 2 Nove… "La dis… "Seu… "Les… FR    "Seul …  1171 <chr [1,318]>   
    ##  8 ./pa… arti… 2 Nove… "Les ca… "Ils… "Ce … FR    "Ils d…   552 <chr [612]>     
    ##  9 ./pa… arti… 2 Nove… "Le pré… "FRA… "À l… FR    "FRANÇ…   506 <chr [589]>     
    ## 10 ./pa… arti… 2 Nove… "La nui… "  Ç… "Au … FR    "  ÇA …   516 <chr [552]>     
    ## # … with 3,381 more rows
…
